vti_encoding:SR|utf8-nl
vti_timelastmodified:TR|14 Oct 2005 19:14:02 -0000
vti_extenderversion:SR|5.0.2.6738
vti_lineageid:SR|{79890734-2FAD-45E0-A624-7AE32F9A10B1}
vti_cacheddtm:TX|14 Oct 2005 19:14:02 -0000
vti_filesize:IR|31
vti_backlinkinfo:VX|
