vti_encoding:SR|utf8-nl
vti_timelastmodified:TR|27 Oct 2005 18:14:07 -0000
vti_extenderversion:SR|5.0.2.6738
vti_lineageid:SR|{4CD32141-873B-4D70-9F1D-70F3E8E02044}
vti_cacheddtm:TX|27 Oct 2005 18:14:07 -0000
vti_filesize:IR|34
vti_backlinkinfo:VX|
