vti_encoding:SR|utf8-nl
vti_timelastmodified:TR|17 Nov 2005 18:57:29 -0000
vti_extenderversion:SR|5.0.2.6738
vti_lineageid:SR|{0B39D998-25D8-4D22-A41D-5B63AA806CF2}
vti_cacheddtm:TX|17 Nov 2005 18:57:29 -0000
vti_filesize:IR|10
vti_backlinkinfo:VX|
