vti_encoding:SR|utf8-nl
vti_timelastmodified:TR|10 Jun 2002 07:58:04 -0000
vti_extenderversion:SR|5.0.2.6738
vti_lineageid:SR|{C35E6CEA-A611-4F95-9759-F0FADBFC75C4}
vti_cacheddtm:TX|10 Jun 2002 07:58:04 -0000
vti_filesize:IR|14
vti_backlinkinfo:VX|
