vti_encoding:SR|utf8-nl
vti_timelastmodified:TR|04 Dec 2002 10:16:53 -0000
vti_extenderversion:SR|5.0.2.6738
vti_lineageid:SR|{7BA54C26-CEDA-4B81-8910-AF160E1AA59F}
vti_cacheddtm:TX|04 Dec 2002 10:16:53 -0000
vti_filesize:IR|23
vti_backlinkinfo:VX|
