vti_encoding:SR|utf8-nl
vti_timelastmodified:TR|16 Jan 2003 11:42:11 -0000
vti_extenderversion:SR|5.0.2.6738
vti_lineageid:SR|{0D24D470-1959-412A-93AD-3D4307EC0D3E}
vti_cacheddtm:TX|16 Jan 2003 11:42:11 -0000
vti_filesize:IR|31
vti_backlinkinfo:VX|
