vti_encoding:SR|utf8-nl
vti_timelastmodified:TR|03 Feb 2003 09:53:44 -0000
vti_extenderversion:SR|5.0.2.6738
vti_lineageid:SR|{B3991DF8-CB6A-437B-8CD7-E47A9BC6D827}
vti_cacheddtm:TX|03 Feb 2003 09:53:44 -0000
vti_filesize:IR|62
vti_backlinkinfo:VX|
