vti_encoding:SR|utf8-nl
vti_timelastmodified:TR|05 Dec 2003 16:15:26 -0000
vti_extenderversion:SR|5.0.2.6738
vti_lineageid:SR|{EAB16C02-613B-499E-9885-38A9E77BF344}
vti_cacheddtm:TX|05 Dec 2003 16:15:26 -0000
vti_filesize:IR|39
vti_backlinkinfo:VX|
