vti_encoding:SR|utf8-nl
vti_timelastmodified:TR|08 Oct 2003 09:47:22 -0000
vti_extenderversion:SR|5.0.2.6738
vti_lineageid:SR|{D7081B09-D8EF-4A67-8FD6-63ACBF9355C1}
vti_cacheddtm:TX|08 Oct 2003 09:47:22 -0000
vti_filesize:IR|26
vti_backlinkinfo:VX|
