vti_encoding:SR|utf8-nl
vti_timelastmodified:TR|08 Oct 2003 10:21:52 -0000
vti_extenderversion:SR|5.0.2.6738
vti_lineageid:SR|{F58EE6DE-32E4-498C-82D8-8E47DA6AAF07}
vti_cacheddtm:TX|08 Oct 2003 10:21:52 -0000
vti_filesize:IR|40
vti_backlinkinfo:VX|
