vti_encoding:SR|utf8-nl
vti_timelastmodified:TR|29 Oct 2003 09:25:18 -0000
vti_extenderversion:SR|5.0.2.6738
vti_lineageid:SR|{F8CA67B7-CD94-483E-9B18-0FE26A1617FE}
vti_cacheddtm:TX|29 Oct 2003 09:25:18 -0000
vti_filesize:IR|23
vti_backlinkinfo:VX|
