vti_encoding:SR|utf8-nl
vti_timelastmodified:TR|04 Dec 2003 18:00:20 -0000
vti_extenderversion:SR|5.0.2.6738
vti_lineageid:SR|{21937CEB-86A4-4285-B6E0-96E5CB1E1D57}
vti_cacheddtm:TX|04 Dec 2003 18:00:20 -0000
vti_filesize:IR|28
vti_backlinkinfo:VX|
