vti_encoding:SR|utf8-nl
vti_timelastmodified:TR|15 Jan 2004 14:42:05 -0000
vti_extenderversion:SR|5.0.2.6738
vti_lineageid:SR|{DDE00785-5422-4F00-8530-919F8F60AA8C}
vti_cacheddtm:TX|15 Jan 2004 14:42:05 -0000
vti_filesize:IR|44
vti_backlinkinfo:VX|
