vti_encoding:SR|utf8-nl
vti_timelastmodified:TR|15 Jan 2004 15:21:17 -0000
vti_extenderversion:SR|5.0.2.6738
vti_lineageid:SR|{E2D2DF2E-9BF9-45E2-9532-67E0AE0967AA}
vti_cacheddtm:TX|15 Jan 2004 15:21:17 -0000
vti_filesize:IR|132
vti_backlinkinfo:VX|
