vti_encoding:SR|utf8-nl
vti_timelastmodified:TR|16 Jan 2004 09:51:19 -0000
vti_extenderversion:SR|5.0.2.6738
vti_lineageid:SR|{710F7AA6-5BF0-4748-8830-132052B59796}
vti_cacheddtm:TX|16 Jan 2004 09:51:19 -0000
vti_filesize:IR|175
vti_backlinkinfo:VX|
