vti_encoding:SR|utf8-nl
vti_timelastmodified:TR|15 May 2002 13:12:34 -0000
vti_extenderversion:SR|5.0.2.6738
vti_lineageid:SR|{9E5EF4D5-3136-45B4-8C94-42C65C62841F}
vti_cacheddtm:TX|15 May 2002 13:12:34 -0000
vti_filesize:IR|45
vti_backlinkinfo:VX|
