vti_encoding:SR|utf8-nl
vti_timelastmodified:TR|08 Mar 2002 12:24:21 -0000
vti_extenderversion:SR|5.0.2.6738
vti_lineageid:SR|{AA4A046A-52DE-4D49-ADA6-92EDE0118F1E}
vti_cacheddtm:TX|08 Mar 2002 12:24:21 -0000
vti_filesize:IR|204
vti_backlinkinfo:VX|
