vti_encoding:SR|utf8-nl
vti_timelastmodified:TR|25 Oct 2002 14:21:45 -0000
vti_extenderversion:SR|5.0.2.6738
vti_lineageid:SR|{2ECD5480-E9B4-4916-94CF-29C04D4CBBEB}
vti_cacheddtm:TX|25 Oct 2002 14:21:45 -0000
vti_filesize:IR|39
vti_backlinkinfo:VX|
