vti_encoding:SR|utf8-nl
vti_timelastmodified:TR|08 Apr 2002 14:00:47 -0000
vti_extenderversion:SR|5.0.2.6738
vti_lineageid:SR|{4359C998-78ED-43FD-A1CE-F1A3DF824468}
vti_cacheddtm:TX|08 Apr 2002 14:00:47 -0000
vti_filesize:IR|60
vti_backlinkinfo:VX|
