vti_encoding:SR|utf8-nl
vti_timelastmodified:TR|08 Apr 2002 14:03:03 -0000
vti_extenderversion:SR|5.0.2.6738
vti_lineageid:SR|{8DD6804C-F6CD-4C50-AF45-37CA2FF26444}
vti_cacheddtm:TX|08 Apr 2002 14:03:03 -0000
vti_filesize:IR|49
vti_backlinkinfo:VX|
