vti_encoding:SR|utf8-nl
vti_timelastmodified:TR|15 Dec 2003 14:00:31 -0000
vti_extenderversion:SR|5.0.2.6738
vti_lineageid:SR|{357F9CF6-A7F9-4B2B-AC51-A9E492CA80AB}
vti_cacheddtm:TX|15 Dec 2003 14:00:31 -0000
vti_filesize:IR|32
vti_backlinkinfo:VX|
