vti_encoding:SR|utf8-nl
vti_timelastmodified:TR|02 Apr 2003 10:38:15 -0000
vti_extenderversion:SR|5.0.2.6738
vti_lineageid:SR|{EB44FA08-75DE-4134-948D-9108D3DE9BF0}
vti_cacheddtm:TX|02 Apr 2003 10:38:15 -0000
vti_filesize:IR|3757
vti_backlinkinfo:VX|
