﻿ALBERTONY1957@HOTMAIL.COM;ALBERTVR79@HOTMAIL.COM;ALBISFRANCO@HOTMAIL.COM;ALBITA--19@HOTMAIL.COM;ALBITAPARQUES@HOTMAIL.COM;ALBORNOZ22@OUTLOOK.COM;ALBY706@HOTMAIL.COM;alcirac66@hotmail.com;ALCLO2@HOTMAIL.COM;ALCONCA123@HOTMAIL.COM;ALDANITA2014@HOTMAIL.COM;aldaza74@hotmail.com;aldemarpenagos@hotmail.com;ALDOBEGI@HOTMAIL.COM;ALDOPIN91@HOTMAIL.COM;ale0575flas@hotmail.com;ALEANDRA_VILLAMIZAR2611@HOTMAIL.COM;ALEAROZ@HOTMAIL.COM;ALEBOTA1@HOTMAIL.COM;ALEBUE19@HOTMAIL.COM;aleceballos2@hotmail.com;ALECIRAMGB@HOTMAIL.COM;ALECIRO_27@HOTMAIL.COM;aledim34@hotmail.com;ALEIDA_CARDONA@HOTMAIL.COM;ALEIDA-36@HOTMAIL.COM;ALEIDAPAULINA1124@HOTMAIL.COM;ALEJ-3101@HOTMAIL.COM;aleja.80@hotmail.com;ALEJA.K.30@HOTMAIL.COM;ALEJA.ZAPATA@HOTMAIL.COM;ALEJA_18_01@HOTMAIL.COM;ALEJA_3110@HOTMAIL.COM;ALEJA_730@HOTMAIL.COM;ALEJA_ARIAS8901@HOTMAIL.COM;ALEJA_XR@HOTMAIL.COM;ALEJA0209@HOTMAIL.COM;ALEJA022009@HOTMAIL.COM;aleja1128@hotmail.com;ALEJA1704211@HOTMAIL.COM;ALEJA1989-05@HOTMAIL.COM;ALEJA2013H@GMAIL.COM;aleja406@gmail.com;aleja7_30@hotmail.com;ALEJA7425@HOTMAIL.COM;ALEJA-9002@HOTMAIL.ES;alejabaleroto23@gmail.com;alejabrmr@gmail.com;ALEJACEBALLOS.90@HOTMAIL.COM;ALEJADI29@HOTMAIL.COM;ALEJADIAZ00@HOTMAIL.COM;
ALEJADREAK@HOTMAIL.COM;ALEJADU7@HOTMAIL.COM;ALEJAGAR1988@GMAIL.COM;alejagome06@hotmail.com;ALEJAGOMEZVILLEGAS@HOTMAIL.COM;ALEJAHC@HOTMAIL.COM;ALEJALOPERAM@GMAIL.COM;ALEJAMORENO86@HOTMAIL.COM;ALEJAMUN10@GMAIL.COM;ALEJANDRA_SANCHEZ@HOTMAIL.ES;ALEJANDRA120102@HOTMAIL.COM;ALEJANDRA1635_@HOTMAIL.COM;alejandra-2990@hotmail.com;ALEJANDRA4212@HOTMAIL.COM;ALEJANDRA91121@HOTMAIL.COM;alejandraarias1993@hotmail.com;ALEJANDRACMPS19@GMAIL.COM;ALEJANDRADUQUE23@HOTMAIL.COM;alejandrah207@hotmail.com;ALEJANDRAVARELA2010@HOTMAIL.COM;ALEJANDRAZAPATAG@GMAIL.COM;alejandrita_0305@hotmail.com;ALEJANDRITATORRES1@HOTMAIL.COM;alejandro.376@hotmail.com;alejandro_cristancho@hotmail.com;alejandro_electro@hotmail.com;ALEJANDRO-1521@HOTMAIL.COM;ALEJANDRO250537@HOTMAIL.COM;ALEJANDRO-ALMARIO@HOTMAIL.COM;alejandroanserma@yahoo.es;ALEJANDROCORRERA00@YAHOO.COM;alejandrodim@hotmail.com;ALEJANDROECHAVARRIA09@HOTMAIL.COM;ALEJANDROGIGO@HOTMAIL.COM;alejandrojaraza@hotmail.com;alejandromahg@gmail.com;alejandromolina.lima@hotmail.com;alejandrorestrpo2010@hotmail.com;ALEJANDROSIERRA123@OUTLOOK.COM;ALEJANDROVILLA1961@HOTMAIL.COM;alejandroz1208@hotmail.com;ALEJANGIR@GMAIL.COM;ALEJAOCHOA1111@HOTMAIL.COM;alejaq1221@hotmail.com;ALEJARENDON27@HOTMAIL.COM;ALEJAS23@GAMIL.COM;alejaserna2305@hotmail.com;ALEJATABARES1306@HOTMAIL.COM;ALEJILLASERNA@HOTMAIL.COM;ALEJIS.2@HOTMAIL.COM;ALEJITA_9034@HOTMAIL.COM;
ALEJITA219@HOTMAIL.COM;alejita2712@hotmail.com;ALEJITA-K-@HOTMAIL.COM;ALEJITALN@HOTMAIL.COM;ALEJITALOVE-16@HOTMAIL.COM;alejitaperez980@hotmail.com;ALEJITARESTREPO2009@HOTMAIL.COM;ALEJITO_SALAZAR121@HOTMAIL.COM;ALEJIZPAMPLONA@GAMIL.COM;ALEJO.313@HOTMAIL.COM;ALEJO.DAVIDS@GMAIL.COM;alejo_2502@hotmail.com;alejo_aristi@hotmail.com;ALEJO_BEDOYA@HOTMAIL.COM;ALEJO-0256@HOTMAIL.COM;ALEJO065@HOTMAIL.ES;ALEJO0772@HOTMAIL.COM;ALEJO14DDICIEMBRE@HOTMAIL.COM;alejo-1970@hotmail.com;ALEJO1987_G_@HOTMAIL.COM;ALEJO3M2008@HOTMAIL.COM;ALEJO77STEER@GMAIL.COM;ALEJO821@HOTMAIL.COM;alejo9414@hotmail.com;alejoaele@hotmail.com;ALEJOARREDONDOV@HOTMAIL.COM;alejocano137@hotmail.com;ALEJOCASTA2009@HOTMAIL.COM;alejocs100@hotmail.com;ALEJOGOMEZ_2004@HOTMAIL.COM;ALEJOGRAHIN@HOTMAIL.COM;alejohurtado93@htmail.com;ALEJOJAR148@HOTMAIL.ES;ALEJOLOAIZA1@HOTMAIL.COM;alejo-me@hotmail.com;ALEJOMORALES93@HOTMAIL.COM;ALEJONACIONAL2004@HOTMAIL.COM;alejoruizd@hotmail.com;alejosaenz_18@hotmail.com;ALEJOSANTAMARIA@GMAIL.COM;alejo-seguro@hotmail.com;alejotm68@gmail.con;ALEJOVR33@HOTMAIL.COM;alejoz@live.com;ALEMARI1512@HOTMAIL.COM;ALE-MO04@HOTMAIL.COM;ALEPINO41@HOTMAIL.COM;ALERIS29@YAHOO.ES;ALERUZ64@HOTMAIL.COM;alevale2504@hotmail.com;ALEX.-2009@HOTMAIL.COM;
ALEX07_07@HOTMAIL.ES;ALEX18.2012@HOTMAIL.ES;alex26-mejia@hotmail.com;alex66gc@hotmail.com;ALEX7DEAGOSTO@HOTMAIL.COM;alex-8803@hotmail.com;ALEX930015@HOTMAIL.COM;ALEXA.ORLAS@GMAIL.COM;ALEXA_24BC@HOTMAIL.COM;ALEXA_SANCHEZ05@HOTMAIL.COM;alexa0728@hotmail.com;ALEXA14_83@HOTMAIL.COM;ALEXA1521@HOTMAIL.COM;alexa1855@hotmail.com;ALEXA-2010-@HOTMAIL.COM;ALEXA2166@HOTMAIL.ES;alexa2575@hotmail.com;ALEXA31@GMAIL.COM;ALEXA-611@HOTMAIL.COM;ALEXA73MK@GMAIL.COM;alexacv@hotmail.com;alexaego@hotmail.com;ALEXAGALLEGO13@HOTMAIL.COM;alexamarin@gmail.com;ALEXANDER.A1@HOTMAIL.COM;alexander.echavarria85@gmail.com;ALEXANDER.VERGARA@YAHOO.ES;alexander.yb@hotmail.com;ALEXANDER-1201@HOTMAIL.COM;ALEXANDER12367@HOTMAIL.COM;ALEXANDER17AGUIRRE85@HOTMAIL.COM;alexander28giraldo2012@hotmail.com;ALEXANDER5287@GMAIL.COM;alexanderelzarco@hotmail.com;ALEXANDERMORALES6@GMAIL.COM;ALEXANDERPEG1@GMAIL.COM;alexanderucc@gmail.com;alexanderund@hotmail.com;alexandervalencia786@gmail.com;alexandervillegas7@gmail.com;ALEXANDRA.AMIGUIS@HOTMAIL.COM;ALEXANDRA17291@HOTMAIL.COM;ALEXANDRA198919@HOTMAIL.COM;alexandra8207@hotmail.com;ALEXANDRAC39@HOTMAIL.COM;ALEXANDRA-CALDERON8@HOTMAIL.COM;ALEXANDRACELCILIADA@HOTMAIL.COM;ALEXANDRAMONCADA0421@HOTMAIL.COM;ALEXANDRAOLAVE@HOTMAIL.COM;ALEXANDRAPALACIO2@HOTMAIL.COM;ALEXANDRARPO111@HOTMAIL.COM;
ALEXANDRAZAPATA28@HOTMAIL.COM;ALEXAOB24@HOTMAIL.COM;ALEXAPIEDRAHITA@HOTMAIL.COM;ALEXAROMANZ@GMAIL.COM;alexarteaga36@gmail.com;ALEXASIRLEYT@HOTMAIL.COM;alexazapata08@hotmail.com;alexbetc@hotmail.com;ALEXBUILESHENAO@HOTMAIL.COM;ALEXCABARCASZ@HOTMAIL.COM;ALEXCHINO335@HOTMAIL.COM;alexcyk22@gmail.com;alexdecali9226@hotmail.com;ALEXDEMADERA@HOTMAIL.COM;ALEXDGP@HOTMAIL.COM;ALEX-ELPAISA1@HOTMAIL.COM;ALEXESCOBAR36071@GMAIL.COM;alexfm2007@yahoo.es;ALEXGAMEZ86@GMAIL.COM;ALEXIA2008@LIVE.COM;ALEXIS.1991@HOTMAIL.COM;ALEXIS.9B@HOTMAIL.COM;alexisescobar2@hotmail.com;ALEXISFRAN32@HOTMAIL.COM;ALEXISJARAMILLO07@GMAIL.COM;ALEXISLLANOS1983@LIVE.COM.MX;alexistorres29@hotmail.com;ALEXITA3214@HOTMAIL.COM;alexmir777@yahoo.es;ALEXMO72@GMAAIL.COM;ALEXMORENO1934@HOTMAIL.COM;alexmosqra99@gmail.com;ALEXPEMBERTY@HOTMAIL.COM;ALEXRICOOO@HOTMAIL.COM;ALEXSANCHEZ26@HOTMAIL.COM;alexsanchez941@hotmail.com;ALEXVALENCIA599@GMAIL.COM;ALEXVILLADA123@GMAIL.COM;ALFOMQ66@HOTMAIL.COM;alfonsojaramillo@yahoo.com;ALFONSOWWW1981@HOTMAIL.COM;ALFRED240658@GMAIL.COM;algedic0218@hotmail.com;ALGOB022013@HOTMAIL.COM;ALGUDELO@HOTMAIL.COM;ALHEN61@HOTMAIL.COM;alheronegro-49@hotmail.com;ALIASFLECHASMR@HOTMAIL.COM;alicia2346@hotmail.com;ALICIABAOA@HOTMAIL.COM;aliciaburban@hotmail.com;
alilohe@hotmail.com;alis.edi4025@gmail.com;ALIS26082@YAHOO.ES;ALISON.ALVAREZTOBON@HOTMAIL.COM;ALISONCARLOS@HOTMAIL.ES;alison-medina@hotmail.com;alkalosjyp@hotmail.com;allis1407@hotmail.com;almaclara79@hotmail.com;almalmesa@yahoo.es;almalucia@msn.com;ALMAMARIAHURTADO@GMAIL.COM;ALMAVECA357@HOTMAIL.COM;alma-viva1@HOTMAIL.COM;ALMEO1969@HOTMAIL.COM;ALMUNERA75@HOTMAIL.COM;ALOAIZACADAVID@GMAIL.COM;alonso-grisales@hotmail.com;alonsoloaiza@gmail.com;alonsora@une.net.co;ALONSORAM27@HOTMAIL.COM;ALONSORUA1982@HOTMAIL.COM;ALONYE2012@HOTMAIL.COM;ALOXMAN77@AOL.COM;ALPEBE07@HOTMAIL.COM;ALUCINANTEAD@GMAIL.COM;ALVARADO.ASTRID@YAHOO.ES;ALVAREZ.IGUARAN@GMAIL.COM;alvarez.posada@hotmail.com;alvarez_aleja007@hotmail.com;ALVAREZEE@HOTMAIL.COM;alvarezhector29@hotmail.com;ALVARO.ARROYO@OUTLOOK.ES;ALVARO702008@HOTMAIL.COM;alvarobarco747@hotmail.com;alvarocanogaviria016@gmail.com;alvarodiazmz@gmail.com;alvarogomezacosta@yahoo.com;alvarohm1111@hotmail.com;alvarorm8@hotmail.com;ALVAROSALDARRIAGA14@GMAIL.COM;ALVARSANJIM@HOTMAIL.COM;ALVIS05@HOTMAIL.COM;AM_MONSA@HOTMAIL.COM;amab430@hotmail.com;AMADAGIRLS@HOTMAIL.COM;AMALEJILLO@GMAIL.COM;AMALI02885@HOTMAIL.OM;AMALIA-365@HOTMAIL.COM;AMANDARIO66@HOTMIAL.COM;am-andres@hotmail.com;
amariariosr@gmail.com;amayorca81@hotmail.com;AMAZONAS29@GMAIL.COM;amc244@hotmail.com;AMDA_0714@HOTMAIL.COM;AMELIAPOLO2@HOTMAIL.COM;AMESAAGUDELO@GMAIL.COM;AMIGOPROSPERO69@HOTMAIL.COM;AMIGUIN2009@HOTMAIL.COM;amjaimes.restrepo@gmail.com;AMONTOYAESPINOSA@MAIL.COM;AMOR1243@HOTMAIL.COM;AMORDAORPA@HOTMAIL.COM;amorimited1010@hotmail.com;amp.florez@hotmail.com;AMPARIITO@HOTMAIL.COM;AMPARITO1978@GMAIL.COM;AMPARODIAZ244@GMAIL.COM;AMPAROGONZALEZ7956@HOTMAIL.COM;amparo-sanmo117@hotmail.com;amposadag@unal.edu.co;AMPROJAS@HOTMAIL.COM;AMQ-30@HOTMAIL.COM;AMRITA_ANANDA@HOTMAIL.COM;AMSR1979@OUTLOOK.COM;AMTJ7@HOTMAIL.COM;AMVELASQ@HOTMAIL.COM;amyaa01@hotmail.com;amyarce17@hotmail.com;AN.SUTOHO@HOTMAIL.COM;ANA.7893@HOTMAIL.COM;ANA.CARVAJAL@HOTMAIL.COM;ANA.GUZMAN12@HOTMAIL.COM;ana.isabel.gaviria@hotmail.com;ana.mile33@hotmail.com;ANA_3103@HOTMAIL.COM;ANA_HM5@HOTMAIL.COM;ANA_VARINYA_CALIXTO@OUTLOOK.ES;ANA2009FLOREZ@HOTMAIL.COM;ANACARDONA89@GMAIL.COM;ANACATALINA.PIZON@GMAIL.COM;anacatalinatd@hotmail.com;anacelis1993@hotmail.com;ANACHO1962@GMAIL.COM;ANACLARA.PRECIADO456@HOTMAIL.COM;ANACRIS411@GMAIL.COM;ANACUARTAS05@HOTMAIL.COM;ANADELY19@GMAIL.COM;anadorisbr@hotmail.com;ANAESCOBAR24@HOTMAIL.COM;ANAFNORE@HOTMAIL.COM;
ANAGARABITO.25@HOTMAIL.COM;ANAGDUQUE90@HOTMAIL.ES;anagiraldo1979@hotmail.com;anagoez98@hotmail.com;ANAGOMEZ0302@HOTMAIL.COM;ANAHERNANDEZ13@HOTMAIL.COM;ana-hijos@hotmail.com;ANAHOJO1@HOTMAIL.COM;anaibarguen47@hotmail.com;ANAID2492@GMAIL.COM;ANAID8875@HOTMAIL.COM;ANAIL21@HOTMAIL.COM;anais@une.net.co;anaisa.bm@hotmail.com;anaisabelsierra@gmail.com;ANAJORESTREPOVAHOS@HOTMAIL.COM;ANALCOAN@HOTMAIL.COM;analista.financiero@hotmail.com;ANALUCIA0247@HOTMAIL.COM;ANALUCIAMATEUSMENDOZA@YAHOO.ES;ANAMAGARCIA22@HOTMAIL.COM;anamar429@hotmail.com;ANAMARIA2246@HOTMAIL.COM;anamariaarias@hotmail.com;ANA-MARIA-BERNAL-17@HOTMAIL.COM;ANAMARIABETANCURDIAZ@GMAIL.COM;ANAMARIAJAES@GMAIL.COM;ANAMARIALOPEZ3110@HOTMAIL.COM;ANAMARIAOM@HOTMAIL.COM;ANAMARIAPUERTAVEGA@GMAIL.COM;ANAMARQUEZ-2012@HOTMAIL.COM;anamg_0824@hotmail.com;ANAMILD@HOTMAIL.COM;ANAMILE200@GMAIL.COM;ANAMILE55@HOTMAIL.COM;ANAMILEN-80@HOTMAIL.COM;ANAMILENA-OSPINA@HOTMAIL.COM;ANAMILENAZULETABARRERA@YAHOO.ES;anammv@gmail.com;anamontoya10@hotmail.com;anamoreno2732@hotmail.com;anampalacio@gmail.com;anamtoroa@gmail.com;ANAOHY932411@HOTMAIL.COM;anaorju4@hotmail.com;ANAORUS15@HOTMAIL.COM;ANAPAU10_120@HOTMAIL.COM;anaperez-1992@hotmail.com;ANAQUICENO1978@HOTMAIL.COM;anarestrepo1992@hotmail.com;ANARIVER82@HOTMAIL.COM;
anasfer2716@hotmail.com;ANASHIRLEYCA@HOTMAIL.COM;anasofia1145@hotmail.com;anasofiayes27@hotmail.com;anasumo@gmail.com;ANAURREGO.15@GMAIL.COM;anavega.itm@hotmail.com;ANAY-724@HOTMAIL.COM;ANAZAPATA80@HOTMAIL.COM;ANCAROL-0211@GMAIL.COM;ANcorrales659@gmail.com;ANCRIMEGU@HOTMAIL.COM;ANDBEDOYA@HOTMAIL.COM;ANDEBEDOYA@HOTMAIL.COM;andefe@msn.com;ANDERCAR12_J@HOTMAIL.COM;ANDERCRAZY21@HOTMAIL.COM;ANDERLEY55@HOTMAIL.COM;ANDERSON9023@HOTMAIL.COM;ANDERSON-ZAPATA@HOTMAIL.COM;AND-GV02@HOTMAIL.COM;andi037@hotmail.com;ANDI212STEVEN@GAMIL.COM;andihiguita@hotmail.co;andilusti@outlook.com;ANDLOSORIO@HOTMAIL.COM;andoresferipe@hotmail.com;ANDR.DRA@HOTMAIL.COM;andre.camelia@hotmail.com;andre.f.lak@hotmail.com;andre13p@hotmail.com;an-dre17@hotmail.com;andre2495@hotmail.com;ANDRE-25LOVE@HOTMAIL.COM;ANDREA.251972@HOTMAIL.COM;ANDREA.GOM@LIVE.COM;ANDREA.JAIMES@ESUMEREDU.CO;ANDREA.LAMONA83@HOTMAIL.COM;andrea.soab@hotmail.com;ANDREA_01_16@HOTMAIL.COM;andrea_2575@hotmail.com;ANDREA_94ANDREA@HOTMAIL.COM;andrea_carolina1994@hotmail.com;ANDREA_RESTREPO@HOTMAIL.COM;ANDREA07222009@HOTMAIL.COM;ANDREA-0915@HOTMAIL.COM;andrea197901@hotmail.com;ANDREA197972@HOTMAIL.COM;andrea2342003@gmail.com;andrea-488@hotmail.com;andrea5861-@hotmail.com;
andrea-789@hotmail.com;ANDREA8A@GMAIL.COM;ANDREAA200529@HOTMAIL.COM;ANDREAATEHORTUA2@GMAIL.COM;ANDREAB.2910@GMAIL.COM;ANDREACANO85@HOTMAIL.COM;ANDREAECHEVERRILOPEZ@HOTMAIL.COM;andreafrancoo@hotmail.com;andrea-giraldo15@hotmail.com;ANDREAGOEZ2309U@GMAIL.COM;ANDREAGOMEZH06@GMAIL.COM;ANDREAGUTIERREZ_16@HOTMAIL.COM;ANDREAGUTIGU@HOTMAIL.COM;ANDREAIDARRAGAARANGO@GMAIL.COM;andreaisabel.09@gmail.com;ANDREAKEINER@HOTMAIL.COM;andreamaria.com@hotmail.com;andreamoreno-7@hotmail.com;ANDREAOROZCO@HOTMAIL.COM;andreap0814@hotmail.com;ANDREAPAO97@HOTMAIL.COM;andreapaula1983@hotmail.com;ANDREA-PINEDA-15@HOTMAIL.COM;andrearroyavem@gmail.com;andrearuizburitica@hotmail.com;ANDREASION3@GMAIL.COM;andreatitani@hotmail.com;andreauran2010@hotmail.com;ANDREA-V1989@HOTMAIL.COM;andreavelez.22@hotmail.com;ANDREAVI710@HOTMAIL.COM;ANDREAY86@HOTMAIL.COM;ANDREBB22@OUTLOOK.COM;ANDRECAMILO111@HOTMAIL.COM;ANDRECOR29@HOTMAIL.COM;ANDREDIM19@HOTMAIL.COM;ANDRE-GIL23@HOTMAIL.COM;ANDREGUTI_16@HOTMAIL.COM;ANDREHIITA.COM@HOTMAIL.COM;ANDREIITAPVALENCIA@HOTMAIL.COM;ANDREINA-SG@HOTMAIL.COM;ANDREINATURE@HOTMAIL.COM;ANDREIRAS861226@HOTMAIL.COM;ANDREISTKM@HOTMAIL.COM;ANDREITA2106_@HOTMAIL.COM;ANDREITA5.5@HOTMAIL.COM;andreitaf-v2@hotmail.com;ANDREITAJIMENEZ16@HOTMAIL.COM;andreitaramirez2513@hotmail.com;andreitarley@gmail.com;ANDREJURIVERA929@HOTMAIL.ES;
ANDRELO_CALAMAR@HOTMAIL.COM;ANDREM.20@HOTMAIL.COM;andres.botero1195@hotmail.com;andres.e.v.h@hotmail.com;ANDRES.GRAJALES@GMAIL.COM;ANDRES.JUANJO@HOTMAIL.COM;andres.lds.2010@hotmail.com;ANDRES.MAURICIO.90@HOTMAIL.COM;andres.pb.1@hotmail.com;ANDRES.SAN1@HOTMAIL.COM;andres.san31@hotmail.com;ANDRES.TORRES33@ESUMER.EDU.CO;ANDRES_005_@HOTMAIL.COM;andres_13_felipe@hotmail.com;andres_20medellin@hotmail.com;ANDRES_BC16@HOTMAIL.ES;andres_carlos15@hotmail.com;andres_felipe.22@hotmail.com;andres_felipe1975@live.com;andres_felipe270@hotmail.com;ANDRES_GALEANO28@HOTMAIL.COM;andres_giraldo@libero.it;andres_kmilo@hotmail.com;andres_mazo@hotmail.es;andres_p77@hotmail.com;ANDRES_PRESENTE_LDS@HOTMAIL.COM;ANDRES_UG89@HOTMAIL.COM;ANDRES0292@HOTMAIL.ES;andres0k@hotmail.com;ANDRES11891@HOTMAIL.COM;ANDRES18M@HOTMAIL.COM;ANDRES1986_11@HOTMAIL.COM;ANDRES20BET@HOTMAIL.COM;ANDRES2313@OUTLOOK.ES;ANDRES2679@HOTMAIL.COM;ANDRES31LOPEZ@HOTMAIL.ES;ANDRES3210@HOTMAIL.ES;ANDRES-3357@HOTMAIL.COM;ANDRES5225@HOTMAIL.COM;andres671@gmail.com;ANDRES7137@GMAIL.COM;ANDRES75ROLDAN@HOTMAIL.COM;ANDRES791011@HOTMAIL.COM;ANDRES-8-@OUTLOOK.COM;ANDRES-83@HOTMAIL.COM;ANDRES8574@HOTMAIL.COM;andres8819o@hotmail.com;ANDRESAKNO@HOTMAIL.COM;andresalmeida23@gmail.com;ANDRESALVAREZM2010@HOTMAIL.COM;ANDRESBARRETO0421@GMAIL.COM;
ANDRESBRAVO98@GMAIL.COM;ANDRESC.007@HOTMAIL.COM;andrescano@hotmail.com;ANDRESCORPION74@HOTMAIL.COM;ANDRESCUERVO105@GMAIL.COM;ANDRESCUERVOH@HOTMAIL.COM;andreseduardobenitezsierra96@yahoo.es;ANDRESF.114@HOTMAIL.COM;ANDRESFELIPE3683@GMAIL.COM;ANDRESFELIPEJARA@GMIAL.COM;andresfgrandaj22@hotmail.com;ANDRESFOX_20@HOTMAIL.COM;ANDRESFP1986@HOTMAIL.COM;ANDRESFRAPER@GMAIL.COM;ANDRESFRAVE98@HOTMAIL.COM;andresfvl23@yahoo.es;andresgado85@gmail.com;ANDRESGALMOL@HOTMAIL.COM;ANDRESGAR75@HOTMAIL.COM;ANDRESGUTIERREZ.NET@GMAIL.COM;ANDRESHENAO81.09@HOTMAIL.COM;ANDRESIERRAPEREZ0720@HOTMAIL.COM;andresito.1991@hotmail.es;ANDRESITO941@GMAIL.COM;ANDRESJERRY10@HOTMAIL.COM;andreslds@hotmail.com;ANDRESLLDM@HOTMAIL.COM;ANDRES-MAO30@HOTMAIL.COM;ANDRESMARIN84@HOTMAIL.COM;ANDRESMECATRONICA86@HOTMAIL.COM;ANDRESMEJI1100@OUTLOOK.COM;andresmejiasanchez@hotmail.com;andresmgiraldo@hotmail.com;ANDRESMONSALVEC@GMAIL.COM;andresmt8@hotmail.com;andresmx89@gmail.com;andres-okendo22@hotmail.com;ANDRESPAC92@HOTMAIL.COM;andrespipe90@hotmail.com;ANDRESPLAZAOCAMPO@GMAIL.COM;ANDRES-PRINSS@HOTMAIL.COM;andresprofessional@hotmail.com;ANDRESPULG@HOTMAIL.COM;ANDRESROCK24@HOTMAIL.COM;ANDRESRU87@HOTMAIL.COM;ANDRESSANCHEZNEGRETE@GMAIL.COM;ANDRESSJM@HOTMAIL.COM;ANDRESSR@UNE.NET.CO;ANDRESTAPIASXXX@GMAIL.COM;andrestaz2@hotmail.com;andrestobon93@hotmail.com;
ANDRESTRUJILLO11@GMAIL.COM;andresupeguigomez@hotmail.com;andresuribe07@hotmail.com;andresv_450@hotmail.com;andresv01@hotmail.com;ANDRESVASQUEZ1@HOTMAIL.ES;ANDRESY1020@HOTMAIL.COM;ANDRESYJIMENA1821@HOTMAIL.COM;ANDRES-ZB1989@HOTMAIL.COM;andretotustuus@gmail.com;ANDRETQM08@HOTMAIL.COM;andretyfelip@hotmail.com;ANDREV.15@HOTMAIL.COM;ANDREWDUQUE04@HOTMAIL.COM;Andrexg0125@hotmail.com;ANDREXITA@HOTMAIL.COM;andrexy72@hotmail.com;ANDREY_93@LIVE.COM;ANDREY0798@HOTMAIL.COM;ANDRIIU-CAP@HOTMAIL.COM;ANDRITONE@HOTMAIL.COM;ANDROMEDA0354@HOTMAIL.COM;ANDRU-ANDRES19@HOTMAIL.COM;ANDRUSA260@HOTMAIL.COM;ANDRUX1998@HOTMAIL.ES;anduribe222@hotmail.com;andy1995-3-4@hotmail.com;andydur@live.com.mx;andymr92@hotmail.com;ANELE931003@HOTMAIL.COM;anelim_25@hotmail.com;ANETHF-5@HOTMAIL.COM;ANFE_89@HOTMAIL.COM;anfelp10@hotmail.com;ANFEPAPE@HOTMAIL.COM;anfjara@hotmail.com;ANFOPH@GMAIL.COM;ANFORA32@HOTMAIL.COM;ANG_MAT126@HOTMAIL.COM;ANGARO17@HOTMAIL.COM;ANGEBEDU@HOTMAIL.COM;ANGEL.DR27@HOTMAIL.COM;ANGEL.JHON41@GMAIL.COM;ANGEL-280388@HOTMAIL.COM;angel44mt@hotmail.com;ANGELA.PEREZ52@HOTMAIL.COM;ANGELA_0415GALVIS@HOTMAIL.COM;ANGELA160671@HOTMAIL.COM;ANGELA6119@HOTMAIL.COM;angela890729@gmail.com;ANGELABLANDON12@HOTMAIL.COM;
ANGELAET5@HOTMAIL.COM;angelahernandez26@hotmail.com;ANGELAM.GARCIA@HOTMAIL.COM;ANGELAM025@HOTMAIL.COM;angelama1017@gmail.com;angelamariagiraldo27@hotmail.com;angelamgova31@gmail.com;ANGELAMM2210@HOTMAIL.COM;angelamon28@hotmail.com;ANGELAMVELASQUEZM@GMAIL.COM;angelana@hotmail.com;ANGELAOCHAO823@GMAIL.COM;angelaoki1978@hotmail.com;ANGELAQUINCHIA.BALDIOS@GMAIL.COM;angelasanrosas2604@hotmail.es;angelaudem@hotmail.com;ANGELAVELEZ22@HOTMAIL.COM;ANGELAZULETA23E@HOTMAIL.COM;angelcluster22@hotmail.com;ANGELCRUZ22@HOTMAIL.COM;ANGELDEDIOS-30@HOTMAIL.COM;ANGELDULCE_90@HOTMAIL.ES;ANGELICA1993.30@HOTMAIL.COM;ANGELICA70966@HOTMAIL.COM;ANGELICA81@UNE.NET.CO;angelicacuellars91@hotmail.com;ANGELICADIAZ0508@GMAIL.COM;ANGELICAKJ@LIVE.COM;angelicamedinarpo@hotmail.com;ANGELICAZAPATA4@GMAIL.COM;ANGELICOSME@HOTMAIL.COM;ANGELIKITTA29@HOTMAIL.COM;angelioneva@hotmail.com;ANGELIQUITAMOSQUERA@HOTMAIL.COM;ANGELITA1985@HOTMAIL.COM;ANGELITA2188@HOTMAIL.COM;ANGELITO2092@HOTMAIL.ES;ANGELITO2310@GMAIL.COM;ANGELITOGRI@HOTMAIL.COM;ANGELLCHERRERA@HOTMAIL.COM;ANGELLY.CANO@ESUMER.EDU.CO;angellymesa@gmail.com;ANGELO.CERON@HOTMAIL.COM;ANGELO720GRADOS@LIVE.COM;ANGELOCOSME@HOTMAIL.COM;angelospinalopez@gmail.com;ANGELPACHECO1256@HOTMAIL.COM;ANGELROMERO.S@HOTMAIL.COM;angelsu28@hotmail.com;angeltabarez@msn.com;ANGELV39@HOTMAIL.COM;
ANGELY0805@HOTMAIL.COM;ANGELYE14@HOTMAIL.COM;ANGI_13_16@HOTMAIL.COM;ANGIE.MARTINEZ@HOTMAIL.COM;ANGIE_ALEXANDRA94@HOTMAIL.COM;angie-0830@hotmail.com;ANGIE-11.2012@HOTMAIL.COM;ANGIE-145@HOTMAIL.COM;ANGIE3618@HOTMAIL.COM;ANGIEGONZALEZ2015@GMAIL.COM;ANGIEJARAMILLOREINA@HOTMAIL.COM;ANGIEJTH1316@HOTMAIL.COM;ANGIEKTO@YAHOO.COM;ANGIELIZDEY@OUTLOOK.COM;ANGIEMARIA0731@GMAIL.COM;ANGIE-MARY124@HOTMAIL.COM;ANGIEMONA09@HOTMAIL.COM;ANGIEMONTOYA1990@HOTMAIL.COM;angiemunera@hotmail.com;ANGIEROCK33@HOTMAIL.COM;angii.velez@hotmail.com;ANGKRM27@HOTMAIL.COM;ANGLEIZA@HOTMAIL.COM;ANGLOPE1@HOTMAIL.COM;ANGUIEEMARCELA01109@HOTMAIL.COM;ANGUITU02@HOTMAIL.COM;ANGY14MESA@HOTMAIL.COM;angy8501@hotmail.com;ANGYMACHADO223@HOTMAIL.COM;angynar@gmail.com;ANI_DIMA@HOTMAIL.COM;anibal_arq@hotmail.com;ANIEBLES19@GMAIL.COM;ANIELDES19@GMAIL.COM;ANIGARCIA212@HOTMAIL.COM;ANILIA17@HOTMAIL.COM;anilorac1991@hotmail.com;anilp43@hotmail.com;ANIPONTY@HOTMAIL.COM;anis8903@hotmail.com;anita.calderon12@hotmail.com;ANITA07_25@HOTMAIL.COM;ANITAAV5@HOTMAIL.COM;ANITAC1026@HOTMAIL.COM;ANITAHOYOS_8@HOTMAIL.COM;ANITAMECHAVE@HOTMAIL.COM;ANITAMISAS@GMAIL.COM;anita-munoz94@hotmail.com;ANJUAN_30@HOTMAIL.COM;ANJULY_04@HOTMAIL.COM;ankynzay@hotmail.com;
anlijuce-@hotmail.com;ANLLY095@HOTMAIL.COM;ANLLY15SAGITARIO@HOTMAIL.COM;ANLLY1812@HOTMAIL.COM;anloca87045610@gmail.com;ANLU7388@HOTMAIL.COM;anmagave@hotmail.es;ANMI_31@HOTMAIL.COM;ANNEGISELLE_9@HOTMAIL.COM;annie.martinez.lopez@gmail.com;anniie.25@hotmail.com;ANNISOFY@HOTMAIL.COM;ANNITA151998@GMAIL.COM;ANNUNABURI@HOTMAIL.ES;ANNYA2011@HOTMAIL.COM;ANNYEHS@HOTMAIL.COM;ANNYHENAO204@YAHOO.COM;annylopez01@hotmail.com;ANNYSER1232@HOTMAIL.COM;ANOTIS50@GMAIL.COM;ansantamaria02@hotmail.com;ansierraq@yahoo.es;ANSUA15@HOTMAIL.COM;antocogollo@hotmail.com;antonio.tabares67@gmail.com;ANTONTO.2@HOTMAIL.COM;ANTONYPAQUE@HOTMAIL.COM;anubis579@hotmail.com;anvasa2013@gmail.com;ANY1118@HOTMAIL.COM;ANYA_CO84@HOTMAIL.COM;ANYELA89M@GMAIL.COM;ANYELIHINESCORD@HOTMAIL.COM;ANYELIPS21@GMAIL.COM;ANYELY-996@HOTMAIL.COM;ANYI205@HOTMAIL.COM;ANYIZULAY24@HOTMAIL.COM;anymanu18@hotmail.com;anysg_1514@hotmail.com;ANYSOFIA@HOTMAIL.ES;ANYULIARCE1590@GMAIL.COM;aorrego82@hotmail.com;AORREGOARISMENDY@GMAIL.COM;apalciomurillo@gmail.com;aperezmuriel@gmail.com;apolion_5@hotmail.com;AQUINTERO08@MISENA.EDU.CO;AR_CK@HOTMAIL.COM;ARACELLYARIASPIEDRAHITA@GMAIL.COM;ARACELLYARRIETAARRIETA@GMILA.COM;ARACHE7@HOTMAIL.COM;
ARALI.1996@HOTMAIL.COM;aranesalejandra@hotmail.com;ARANGOALEJANDRO937@GMAIL.COM;arangoana03@gmail.com;ARANGO---EJ@HOTMAIL.COM;ARANGOLEIDY@HOTMAIL.COM;ARANGOPIPE93@HOTMAIL.COM;ARASALIKA@HOTMAIL.COM;ARAVANEGAS145@HOTMAIL.COM;ARAVE71A@HOTMAIL.COM;araween83@hotmail.com;ARBEY0515@HOTMAIL.COM;ARBOLEDA.214@HOTMAIL.COM;ARBOLEDADIANA@HOTMAIL.COM;arboledamarta@hotmail.com;ARCELIOS62@HOTMAIL.COM;ARCESIO24@HOTMAIL.COM;archel312008@hotmail.com;archi0111@hotmail.com;ARE2820@GMAIL.COM;ARELCYCOAVAS@HOTMAIL.COM;arelis4@gmail.com;ARELISDIAZ_12@HOTMAIL.COM;ARENASPRIETOJACQUELINE@HOTMAIL.COM;AREVALO191@HOTMAIL.COM;ARGE892011@HOTMAIL.COM;ARGOX27@HOTMAIL.COM;ariana2187@hotmail.com;arias.hz1079@gmail.com;ARIAS266@YAHOO.ES;ariasnatalia0284@hotmail.com;ariasyuliangarcia@hotmail.com;ariaszapatasaul@yahoo.es;ARISJHAIR@HOTMAIL.COM;ARISTI1010@GMAIL.COM;aristi9202@hotmail.com;ARLEIDA2825@HOTMAIL.COM;ARLEJO_10@HOTMAIL.COM;arlesleon@hotmail.com;ARLEX1999@HOTMAIL.COM;ARLEY1800@HOTMAIL.COM;arley-777@hotmail.com;ARLEYARLEY@HOTMAIL.COM;arleybodher@hotmail.com;ARLEYJ128@HOTMAIL.COM;arleymun@yahoo.com;armandojoseospina@gmail.com;armandopadilla12@hotmail.com;armandorua621@hotmail.com;ARMANICAMILO@GMAIL.COM;ARODASJ@GMAIL.COM;
arosso1812@misena.edu.co;ARQ.CESARRODRIGUEZ@GMAIL.COM;arqnestoragudelo@gmail.com;arqui.rueda000@gmail.com;ARQUIMYRIAM@GAMIL.COM;arquiroz1@hotmail.com;arredondourrego@yahoo.om;ARREZAJO@YAHOO.ES;ARRUBLA26@HOTMAIL.COM;ARS.1985.CAMIL@GMAIL.COM;arse26-@hotmail.com;ARTEAGA-YESICA@HOTMAIL.COM;ARTEARIAS10@HOTMAIL.COM;ARTEMIS@COLOMBIA.COM;artemisa_55@yahoo.es;arteriuz@hotmail.com;ARTESANIAS.MAX@HOTMAIL.COM;ARTUROANDRES2010@HOTMAIL.COM;aruarua@eafit.edu.co;ARV818@HOTMAIL.COM;arveyy_27@hotmail.com;AS_TRID_21@HOTMAIL.COM;asanchez1907@hotmail.com;AS-DE12@HOTMAIL.COM;ASDRUJT@HOTMAIL.COM;asesoriaspublicidadyservicio@gmail.com;ASJOGERI1994@HOTMAIL.COM;ASLYLAMEJOR@GMAIL.COM;ASOCIACIONARBOLITOS@GMAIL.COM;ASOMHTAZA2012@HOTMAIL.COM;ASPRILLASANCHEZ@HOTMAIL.COM;ASTILL527@HOTMAIL.COM;ASTRD12@HOTMAIL.COM;astrid-21759@hotmail.com;ASTRID7618@HOTMAIL.COM;ASTRID7DU@HOTMAIL.COM;astridalarcon@hotmail.com;ASTRIDARMIJO17@GMAIL.COM;ASTRIDBC11@HOTMAIL.COM;ASTRIDCHICA@HOTMAIL.COM;ASTRIDD76@HOTMAIL.COM;ASTRIDELENA67@HOTMAIL.COM;ASTRIDELENARESTREPO@HOTMAIL.COM;astridepj28@yahoo.es;ASTRIDG1231@HOLMAIL.COM;astridmb30@gmail.com;ASTRIDMCV@GMAIL.COM;ASTRIDMORENO1968@YAHOO.ES;ASTRIDP@HOTMAIL.COM;astridpeva23@hotmail.com;astriduribe12@hotmail.com;
